// Jest Snapshot v1, https://goo.gl/fbAQLP

exports[`Login Button Component should render properly 1`] = `
<WithStyles(ForwardRef(Button))
  color="inherit"
  onClick={[Function]}
>
  Log In
</WithStyles(ForwardRef(Button))>
`;
